t.point;channel;mc.light.perc;mc.light.ue;pm.light.ue;pm.type;type
05/15/20 03:30 PM;0;0;0;0.01;0;measurement
05/15/20 03:30 PM;0;0.05;13;8.93;0;measurement
05/15/20 03:30 PM;0;0.149;39;36.22;0;measurement
05/15/20 03:30 PM;0;0.249;65;63.44;0;measurement
05/15/20 03:30 PM;0;0.498;130;129.34;0;measurement
05/15/20 03:30 PM;0;0.701;183;182.45;0;measurement
05/15/20 03:30 PM;0;0.9;235;233.4;0;measurement
05/15/20 03:30 PM;0;1;261;258.7;0;measurement
05/15/20 03:30 PM;1;0;0;0.01;0;measurement
05/15/20 03:30 PM;1;0.051;13;8.75;0;measurement
05/15/20 03:30 PM;1;0.15;38;35;0;measurement
05/15/20 03:30 PM;1;0.248;63;61;0;measurement
05/15/20 03:30 PM;1;0.5;127;125.92;0;measurement
05/15/20 03:30 PM;1;0.701;178;177;0;measurement
05/15/20 03:30 PM;1;0.902;229;226.8;0;measurement
05/15/20 03:30 PM;1;1;254;251.3;0;measurement
05/15/20 03:30 PM;2;0;0;0.01;0;measurement
05/15/20 03:30 PM;2;0.051;13;9.11;0;measurement
05/15/20 03:30 PM;2;0.153;39;36.33;0;measurement
05/15/20 03:30 PM;2;0.25;64;62.65;0;measurement
05/15/20 03:30 PM;2;0.5;128;128.77;0;measurement
05/15/20 03:30 PM;2;0.699;179;180.7;0;measurement
05/15/20 03:30 PM;2;0.898;230;231.6;0;measurement
05/15/20 03:30 PM;2;1;256;257.5;0;measurement
05/15/20 03:30 PM;3;0;0;0.01;0;measurement
05/15/20 03:30 PM;3;0.049;13;8.81;0;measurement
05/15/20 03:30 PM;3;0.152;40;37;0;measurement
05/15/20 03:30 PM;3;0.251;66;64.55;0;measurement
05/15/20 03:30 PM;3;0.502;132;132.32;0;measurement
05/15/20 03:30 PM;3;0.7;184;184.75;0;measurement
05/15/20 03:30 PM;3;0.901;237;237.3;0;measurement
05/15/20 03:30 PM;3;1;263;263;0;measurement
05/15/20 03:30 PM;4;0;0;0.01;0;measurement
05/15/20 03:30 PM;4;0.05;13;9.14;0;measurement
05/15/20 03:30 PM;4;0.151;39;36.65;0;measurement
05/15/20 03:30 PM;4;0.252;65;63.94;0;measurement
05/15/20 03:30 PM;4;0.5;129;129.83;0;measurement
05/15/20 03:30 PM;4;0.698;180;181.6;0;measurement
05/15/20 03:30 PM;4;0.899;232;233.8;0;measurement
05/15/20 03:30 PM;4;1;258;259.7;0;measurement
05/15/20 03:30 PM;5;0;0;0.01;0;measurement
05/15/20 03:30 PM;5;0.049;13;9.3;0;measurement
05/15/20 03:30 PM;5;0.15;40;38.67;0;measurement
05/15/20 03:30 PM;5;0.251;67;66.93;0;measurement
05/15/20 03:30 PM;5;0.502;134;135.9;0;measurement
05/15/20 03:30 PM;5;0.7;187;189.39;0;measurement
05/15/20 03:30 PM;5;0.899;240;242.3;0;measurement
05/15/20 03:30 PM;5;1;267;269.2;0;measurement
05/15/20 03:30 PM;6;0;0;0.01;0;measurement
05/15/20 03:30 PM;6;0.051;13;9.28;0;measurement
05/15/20 03:30 PM;6;0.15;38;36.08;0;measurement
05/15/20 03:30 PM;6;0.252;64;63.7;0;measurement
05/15/20 03:30 PM;6;0.5;127;128.47;0;measurement
05/15/20 03:30 PM;6;0.701;178;180.03;0;measurement
05/15/20 03:30 PM;6;0.902;229;231;0;measurement
05/15/20 03:30 PM;6;1;254;255.9;0;measurement
05/15/20 03:30 PM;7;0;0;0.01;0;measurement
05/15/20 03:30 PM;7;0.051;13;8.93;0;measurement
05/15/20 03:30 PM;7;0.152;39;36.38;0;measurement
05/15/20 03:30 PM;7;0.249;64;63.13;0;measurement
05/15/20 03:30 PM;7;0.502;129;130.1;0;measurement
05/15/20 03:30 PM;7;0.7;180;181.72;0;measurement
05/15/20 03:30 PM;7;0.899;231;232.1;0;measurement
05/15/20 03:30 PM;7;1;257;257.5;0;measurement
